1 BMF = 1 TPU, 1 FAN, 1 MB, 1 DCL @EPA
4 TPU = 4 MWF, 4 TRN, 4 CAP, 4 HCC @SCA
20 MWF = 2 SI, 2 AL @CLR
1 SI = 3 SIO, 1 AL @SME
10 TRN = 1 AL, 1 SI @CLR
15 CAP = 1 SI, 1 FE @CLR
10 HCC = 300 PE, 1 RGO @FS
5 RGO = 4 AU, 1 CU @FS
2 AU = 1 C, 3 AUO @SME
3 CU = 3 CUO, 10 O, 1 SIO @SME
8 FAN = 1 AL, 8 DCS, 2 SFK @MCA
2 DCS = 4 SFK, 10 PG, 1 PSS @PPF
16 SFK = 1 FE @FS
1 PSS = 10 PG @PPF
4 MB = 4 RAM, 4 MPC, 4 PSM, 4 SFK @MCA
6 RAM = 6 PSS, 6 CAP, 6 BCO @SCA
10 BCO = 1 CU, 300 PE @FS
10 MPC = 10 SWF, 10 TRN, 10 BCO @SCA
30 SWF = 1 SI, 1 AL @CLR
1 PSM = 20 PG @PPF
2 DCL = 2 PSL, 2 MFK, 40 PG @PPF
1 PSL = 40 PG @PPF
8 MFK = 1 STL @FS
12 SP = 8 GL, 24 SOL @ECA
12 SOL = 2 CU, 2 SI, 4 BCO, 1 BRO @ECA
3 BRO = 1 AL, 2 CU @FS
1 BWS = 1 MB, 1 DCM, 1 HD @ELP
2 DCM = 2 PSM, 8 SFK, 20 PG @PPF
5 HD = 1 RG, 5 DCS, 5 LDI @MCA
10 RG = 10 GL, 15 PG @GF
2 DCS = 4 SFK, 10 PG, 1 PSS @PPF
6 LDI = 1 SI, 1 GAL @CLR
1 LBH = 35 PE, 3 AL @PP2
1 LDE = 3 AL, 1 NL @PP2
1 NL = 50 PG @WPL
1 LSE = 120 PG, 3 AL @PP2
1 LTA = 1 AL, 5 GL @PP2