Resources Required:
AL 281, AUO 6, C 2, CUO 24, FE 11, GAL 4, GL 194, O 80, PE 3520, PG 5215, SIO 80, STL 1
Buildings Required:
CLR, ECA, ELP, EPA, FS, GF, MCA, PP2, PPF, SCA, SME, WPL
Excess Resources Produced:
BCO 2, CAP 2, DCL 1, FAN 7, HCC 6, HD 4, LDI 4, MB 3, MFK 6, MWF 16, RAM 4, RG 6, RGO 4, SFK 2, SP 4, SWF 10, TPU 3, TRN 6
